^C:\PROGRAM FILES (X86)\INTEL\RSSDK\SAMPLE\FF_HANDSCONSOLE\MAIN.CPP|C:\PROGRAM FILES (X86)\INTEL\RSSDK\SAMPLE\FF_HANDSCONSOLE\SERIALPORT.CPP|C:\PROGRAM FILES (X86)\INTEL\RSSDK\SAMPLE\FF_HANDSCONSOLE\TIMER.CPP
C:\PROGRAM FILES (X86)\INTEL\RSSDK\SAMPLE\FF_HANDSCONSOLE\BUILD\WIN32_RELEASE\SENDHANDCENTERCOORDTOARDUINO\MAIN.OBJ
C:\PROGRAM FILES (X86)\INTEL\RSSDK\SAMPLE\FF_HANDSCONSOLE\BUILD\WIN32_RELEASE\SENDHANDCENTERCOORDTOARDUINO\TIMER.OBJ
C:\PROGRAM FILES (X86)\INTEL\RSSDK\SAMPLE\FF_HANDSCONSOLE\BUILD\WIN32_RELEASE\SENDHANDCENTERCOORDTOARDUINO\SERIALPORT.OBJ
^C:\PROGRAM FILES (X86)\INTEL\RSSDK\SAMPLE\FF_HANDSCONSOLE\MAIN.CPP
C:\PROGRAM FILES (X86)\INTEL\RSSDK\SAMPLE\FF_HANDSCONSOLE\BUILD\WIN32_RELEASE\SENDHANDCENTERCOORDTOARDUINO\MAIN.OBJ
