^C:\PROGRAM FILES (X86)\INTEL\RSSDK\SAMPLE\FF_HANDSCONSOLE\BUILD\WIN32_DEBUG\SENDHANDCENTERCOORDTOARDUINO\FF_HANDSCONSOLE.RES|C:\PROGRAM FILES (X86)\INTEL\RSSDK\SAMPLE\FF_HANDSCONSOLE\BUILD\WIN32_DEBUG\SENDHANDCENTERCOORDTOARDUINO\MAIN.OBJ|C:\PROGRAM FILES (X86)\INTEL\RSSDK\SAMPLE\FF_HANDSCONSOLE\BUILD\WIN32_DEBUG\SENDHANDCENTERCOORDTOARDUINO\SERIALPORT.OBJ|C:\PROGRAM FILES (X86)\INTEL\RSSDK\SAMPLE\FF_HANDSCONSOLE\BUILD\WIN32_DEBUG\SENDHANDCENTERCOORDTOARDUINO\TIMER.OBJ
C:\WINDOWS\GLOBALIZATION\SORTING\SORTDEFAULT.NLS
C:\PROGRAM FILES (X86)\INTEL\RSSDK\LIB\WIN32\LIBPXC_D.LIB
C:\PROGRAM FILES (X86)\INTEL\RSSDK\SAMPLE\COMMON\LIB\WIN32\V140\LIBPXCUTILS_D.LIB
C:\PROGRAM FILES (X86)\WINDOWS KITS\8.1\LIB\WINV6.3\UM\X86\KERNEL32.LIB
C:\PROGRAM FILES (X86)\WINDOWS KITS\8.1\LIB\WINV6.3\UM\X86\USER32.LIB
C:\PROGRAM FILES (X86)\WINDOWS KITS\8.1\LIB\WINV6.3\UM\X86\GDI32.LIB
C:\PROGRAM FILES (X86)\WINDOWS KITS\8.1\LIB\WINV6.3\UM\X86\WINSPOOL.LIB
C:\PROGRAM FILES (X86)\WINDOWS KITS\8.1\LIB\WINV6.3\UM\X86\COMDLG32.LIB
C:\PROGRAM FILES (X86)\WINDOWS KITS\8.1\LIB\WINV6.3\UM\X86\ADVAPI32.LIB
C:\PROGRAM FILES (X86)\WINDOWS KITS\8.1\LIB\WINV6.3\UM\X86\SHELL32.LIB
C:\PROGRAM FILES (X86)\WINDOWS KITS\8.1\LIB\WINV6.3\UM\X86\OLE32.LIB
C:\PROGRAM FILES (X86)\WINDOWS KITS\8.1\LIB\WINV6.3\UM\X86\OLEAUT32.LIB
C:\PROGRAM FILES (X86)\WINDOWS KITS\8.1\LIB\WINV6.3\UM\X86\UUID.LIB
C:\PROGRAM FILES (X86)\WINDOWS KITS\8.1\LIB\WINV6.3\UM\X86\ODBC32.LIB
C:\PROGRAM FILES (X86)\WINDOWS KITS\8.1\LIB\WINV6.3\UM\X86\ODBCCP32.LIB
C:\PROGRAM FILES (X86)\INTEL\RSSDK\SAMPLE\FF_HANDSCONSOLE\BUILD\WIN32_DEBUG\SENDHANDCENTERCOORDTOARDUINO\FF_HANDSCONSOLE.RES
C:\PROGRAM FILES (X86)\INTEL\RSSDK\SAMPLE\FF_HANDSCONSOLE\BUILD\WIN32_DEBUG\SENDHANDCENTERCOORDTOARDUINO\SERIALPORT.OBJ
C:\PROGRAM FILES (X86)\INTEL\RSSDK\SAMPLE\FF_HANDSCONSOLE\BUILD\WIN32_DEBUG\SENDHANDCENTERCOORDTOARDUINO\TIMER.OBJ
C:\PROGRAM FILES (X86)\INTEL\RSSDK\SAMPLE\FF_HANDSCONSOLE\BUILD\WIN32_DEBUG\SENDHANDCENTERCOORDTOARDUINO\MAIN.OBJ
C:\PROGRAM FILES (X86)\MICROSOFT VISUAL STUDIO 14.0\VC\LIB\LIBCMTD.LIB
C:\PROGRAM FILES (X86)\MICROSOFT VISUAL STUDIO 14.0\VC\LIB\OLDNAMES.LIB
C:\PROGRAM FILES (X86)\MICROSOFT VISUAL STUDIO 14.0\VC\LIB\LIBCPMTD.LIB
C:\PROGRAM FILES (X86)\MICROSOFT VISUAL STUDIO 14.0\VC\LIB\LIBVCRUNTIMED.LIB
C:\PROGRAM FILES (X86)\WINDOWS KITS\10\LIB\10.0.10240.0\UCRT\X86\LIBUCRTD.LIB
C:\PROGRAM FILES (X86)\WINDOWS KITS\8.1\BIN\X86\RC.EXE
C:\PROGRAM FILES (X86)\MICROSOFT VISUAL STUDIO 14.0\VC\BIN\CVTRES.EXE
C:\PROGRAM FILES (X86)\MICROSOFT VISUAL STUDIO 14.0\VC\BIN\MSPDBSRV.EXE
C:\WINDOWS\SYSTEM32\TZRES.DLL
